ARM GAS  C:\Users\savajon\AppData\Local\Temp\ccRfIcXp.s 			page 1


   1              		.syntax unified
   2              		.cpu cortex-m3
   3              		.fpu softvfp
   4              		.eabi_attribute 20, 1
   5              		.eabi_attribute 21, 1
   6              		.eabi_attribute 23, 3
   7              		.eabi_attribute 24, 1
   8              		.eabi_attribute 25, 1
   9              		.eabi_attribute 26, 1
  10              		.eabi_attribute 30, 1
  11              		.eabi_attribute 34, 1
  12              		.eabi_attribute 18, 4
  13              		.thumb
  14              		.syntax unified
  15              		.file	"SW2_PlayMode.c"
  16              		.text
  17              	.Ltext0:
  18              		.cfi_sections	.debug_frame
  19              		.section	.text.SW2_PlayMode_Write,"ax",%progbits
  20              		.align	2
  21              		.global	SW2_PlayMode_Write
  22              		.thumb
  23              		.thumb_func
  24              		.type	SW2_PlayMode_Write, %function
  25              	SW2_PlayMode_Write:
  26              	.LFB0:
  27              		.file 1 "Generated_Source\\PSoC5\\SW2_PlayMode.c"
   1:Generated_Source\PSoC5/SW2_PlayMode.c **** /*******************************************************************************
   2:Generated_Source\PSoC5/SW2_PlayMode.c **** * File Name: SW2_PlayMode.c  
   3:Generated_Source\PSoC5/SW2_PlayMode.c **** * Version 2.20
   4:Generated_Source\PSoC5/SW2_PlayMode.c **** *
   5:Generated_Source\PSoC5/SW2_PlayMode.c **** * Description:
   6:Generated_Source\PSoC5/SW2_PlayMode.c **** *  This file contains API to enable firmware control of a Pins component.
   7:Generated_Source\PSoC5/SW2_PlayMode.c **** *
   8:Generated_Source\PSoC5/SW2_PlayMode.c **** * Note:
   9:Generated_Source\PSoC5/SW2_PlayMode.c **** *
  10:Generated_Source\PSoC5/SW2_PlayMode.c **** ********************************************************************************
  11:Generated_Source\PSoC5/SW2_PlayMode.c **** * Copyright 2008-2015, Cypress Semiconductor Corporation.  All rights reserved.
  12:Generated_Source\PSoC5/SW2_PlayMode.c **** * You may use this file only in accordance with the license, terms, conditions, 
  13:Generated_Source\PSoC5/SW2_PlayMode.c **** * disclaimers, and limitations in the end user license agreement accompanying 
  14:Generated_Source\PSoC5/SW2_PlayMode.c **** * the software package with which this file was provided.
  15:Generated_Source\PSoC5/SW2_PlayMode.c **** *******************************************************************************/
  16:Generated_Source\PSoC5/SW2_PlayMode.c **** 
  17:Generated_Source\PSoC5/SW2_PlayMode.c **** #include "cytypes.h"
  18:Generated_Source\PSoC5/SW2_PlayMode.c **** #include "SW2_PlayMode.h"
  19:Generated_Source\PSoC5/SW2_PlayMode.c **** 
  20:Generated_Source\PSoC5/SW2_PlayMode.c **** /* APIs are not generated for P15[7:6] on PSoC 5 */
  21:Generated_Source\PSoC5/SW2_PlayMode.c **** #if !(CY_PSOC5A &&\
  22:Generated_Source\PSoC5/SW2_PlayMode.c **** 	 SW2_PlayMode__PORT == 15 && ((SW2_PlayMode__MASK & 0xC0) != 0))
  23:Generated_Source\PSoC5/SW2_PlayMode.c **** 
  24:Generated_Source\PSoC5/SW2_PlayMode.c **** 
  25:Generated_Source\PSoC5/SW2_PlayMode.c **** /*******************************************************************************
  26:Generated_Source\PSoC5/SW2_PlayMode.c **** * Function Name: SW2_PlayMode_Write
  27:Generated_Source\PSoC5/SW2_PlayMode.c **** ****************************************************************************//**
  28:Generated_Source\PSoC5/SW2_PlayMode.c **** *
  29:Generated_Source\PSoC5/SW2_PlayMode.c **** * \brief Writes the value to the physical port (data output register), masking
  30:Generated_Source\PSoC5/SW2_PlayMode.c **** *  and shifting the bits appropriately. 
ARM GAS  C:\Users\savajon\AppData\Local\Temp\ccRfIcXp.s 			page 2


  31:Generated_Source\PSoC5/SW2_PlayMode.c **** *
  32:Generated_Source\PSoC5/SW2_PlayMode.c **** * The data output register controls the signal applied to the physical pin in 
  33:Generated_Source\PSoC5/SW2_PlayMode.c **** * conjunction with the drive mode parameter. This function avoids changing 
  34:Generated_Source\PSoC5/SW2_PlayMode.c **** * other bits in the port by using the appropriate method (read-modify-write or
  35:Generated_Source\PSoC5/SW2_PlayMode.c **** * bit banding).
  36:Generated_Source\PSoC5/SW2_PlayMode.c **** *
  37:Generated_Source\PSoC5/SW2_PlayMode.c **** * <b>Note</b> This function should not be used on a hardware digital output pin 
  38:Generated_Source\PSoC5/SW2_PlayMode.c **** * as it is driven by the hardware signal attached to it.
  39:Generated_Source\PSoC5/SW2_PlayMode.c **** *
  40:Generated_Source\PSoC5/SW2_PlayMode.c **** * \param value
  41:Generated_Source\PSoC5/SW2_PlayMode.c **** *  Value to write to the component instance.
  42:Generated_Source\PSoC5/SW2_PlayMode.c **** *
  43:Generated_Source\PSoC5/SW2_PlayMode.c **** * \return 
  44:Generated_Source\PSoC5/SW2_PlayMode.c **** *  None 
  45:Generated_Source\PSoC5/SW2_PlayMode.c **** *
  46:Generated_Source\PSoC5/SW2_PlayMode.c **** * \sideeffect
  47:Generated_Source\PSoC5/SW2_PlayMode.c **** *  If you use read-modify-write operations that are not atomic; the Interrupt 
  48:Generated_Source\PSoC5/SW2_PlayMode.c **** *  Service Routines (ISR) can cause corruption of this function. An ISR that 
  49:Generated_Source\PSoC5/SW2_PlayMode.c **** *  interrupts this function and performs writes to the Pins component data 
  50:Generated_Source\PSoC5/SW2_PlayMode.c **** *  register can cause corrupted port data. To avoid this issue, you should 
  51:Generated_Source\PSoC5/SW2_PlayMode.c **** *  either use the Per-Pin APIs (primary method) or disable interrupts around 
  52:Generated_Source\PSoC5/SW2_PlayMode.c **** *  this function.
  53:Generated_Source\PSoC5/SW2_PlayMode.c **** *
  54:Generated_Source\PSoC5/SW2_PlayMode.c **** * \funcusage
  55:Generated_Source\PSoC5/SW2_PlayMode.c **** *  \snippet SW2_PlayMode_SUT.c usage_SW2_PlayMode_Write
  56:Generated_Source\PSoC5/SW2_PlayMode.c **** *******************************************************************************/
  57:Generated_Source\PSoC5/SW2_PlayMode.c **** void SW2_PlayMode_Write(uint8 value)
  58:Generated_Source\PSoC5/SW2_PlayMode.c **** {
  28              		.loc 1 58 0
  29              		.cfi_startproc
  30              		@ args = 0, pretend = 0, frame = 0
  31              		@ frame_needed = 0, uses_anonymous_args = 0
  32              		@ link register save eliminated.
  33              	.LVL0:
  59:Generated_Source\PSoC5/SW2_PlayMode.c ****     uint8 staticBits = (SW2_PlayMode_DR & (uint8)(~SW2_PlayMode_MASK));
  34              		.loc 1 59 0
  35 0000 044A     		ldr	r2, .L2
  36 0002 1378     		ldrb	r3, [r2]	@ zero_extendqisi2
  37 0004 03F0EF03 		and	r3, r3, #239
  38              	.LVL1:
  60:Generated_Source\PSoC5/SW2_PlayMode.c ****     SW2_PlayMode_DR = staticBits | ((uint8)(value << SW2_PlayMode_SHIFT) & SW2_PlayMode_MASK);
  39              		.loc 1 60 0
  40 0008 0001     		lsls	r0, r0, #4
  41              	.LVL2:
  42 000a 00F01000 		and	r0, r0, #16
  43 000e 1843     		orrs	r0, r0, r3
  44 0010 1070     		strb	r0, [r2]
  45 0012 7047     		bx	lr
  46              	.L3:
  47              		.align	2
  48              	.L2:
  49 0014 C0510040 		.word	1073762752
  50              		.cfi_endproc
  51              	.LFE0:
  52              		.size	SW2_PlayMode_Write, .-SW2_PlayMode_Write
  53              		.section	.text.SW2_PlayMode_SetDriveMode,"ax",%progbits
  54              		.align	2
ARM GAS  C:\Users\savajon\AppData\Local\Temp\ccRfIcXp.s 			page 3


  55              		.global	SW2_PlayMode_SetDriveMode
  56              		.thumb
  57              		.thumb_func
  58              		.type	SW2_PlayMode_SetDriveMode, %function
  59              	SW2_PlayMode_SetDriveMode:
  60              	.LFB1:
  61:Generated_Source\PSoC5/SW2_PlayMode.c **** }
  62:Generated_Source\PSoC5/SW2_PlayMode.c **** 
  63:Generated_Source\PSoC5/SW2_PlayMode.c **** 
  64:Generated_Source\PSoC5/SW2_PlayMode.c **** /*******************************************************************************
  65:Generated_Source\PSoC5/SW2_PlayMode.c **** * Function Name: SW2_PlayMode_SetDriveMode
  66:Generated_Source\PSoC5/SW2_PlayMode.c **** ****************************************************************************//**
  67:Generated_Source\PSoC5/SW2_PlayMode.c **** *
  68:Generated_Source\PSoC5/SW2_PlayMode.c **** * \brief Sets the drive mode for each of the Pins component's pins.
  69:Generated_Source\PSoC5/SW2_PlayMode.c **** * 
  70:Generated_Source\PSoC5/SW2_PlayMode.c **** * <b>Note</b> This affects all pins in the Pins component instance. Use the
  71:Generated_Source\PSoC5/SW2_PlayMode.c **** * Per-Pin APIs if you wish to control individual pin's drive modes.
  72:Generated_Source\PSoC5/SW2_PlayMode.c **** *
  73:Generated_Source\PSoC5/SW2_PlayMode.c **** * \param mode
  74:Generated_Source\PSoC5/SW2_PlayMode.c **** *  Mode for the selected signals. Valid options are documented in 
  75:Generated_Source\PSoC5/SW2_PlayMode.c **** *  \ref driveMode.
  76:Generated_Source\PSoC5/SW2_PlayMode.c **** *
  77:Generated_Source\PSoC5/SW2_PlayMode.c **** * \return
  78:Generated_Source\PSoC5/SW2_PlayMode.c **** *  None
  79:Generated_Source\PSoC5/SW2_PlayMode.c **** *
  80:Generated_Source\PSoC5/SW2_PlayMode.c **** * \sideeffect
  81:Generated_Source\PSoC5/SW2_PlayMode.c **** *  If you use read-modify-write operations that are not atomic, the ISR can
  82:Generated_Source\PSoC5/SW2_PlayMode.c **** *  cause corruption of this function. An ISR that interrupts this function 
  83:Generated_Source\PSoC5/SW2_PlayMode.c **** *  and performs writes to the Pins component Drive Mode registers can cause 
  84:Generated_Source\PSoC5/SW2_PlayMode.c **** *  corrupted port data. To avoid this issue, you should either use the Per-Pin
  85:Generated_Source\PSoC5/SW2_PlayMode.c **** *  APIs (primary method) or disable interrupts around this function.
  86:Generated_Source\PSoC5/SW2_PlayMode.c **** *
  87:Generated_Source\PSoC5/SW2_PlayMode.c **** * \funcusage
  88:Generated_Source\PSoC5/SW2_PlayMode.c **** *  \snippet SW2_PlayMode_SUT.c usage_SW2_PlayMode_SetDriveMode
  89:Generated_Source\PSoC5/SW2_PlayMode.c **** *******************************************************************************/
  90:Generated_Source\PSoC5/SW2_PlayMode.c **** void SW2_PlayMode_SetDriveMode(uint8 mode)
  91:Generated_Source\PSoC5/SW2_PlayMode.c **** {
  61              		.loc 1 91 0
  62              		.cfi_startproc
  63              		@ args = 0, pretend = 0, frame = 0
  64              		@ frame_needed = 0, uses_anonymous_args = 0
  65              		@ link register save eliminated.
  66              	.LVL3:
  92:Generated_Source\PSoC5/SW2_PlayMode.c **** 	CyPins_SetPinDriveMode(SW2_PlayMode_0, mode);
  67              		.loc 1 92 0
  68 0000 044A     		ldr	r2, .L5
  69 0002 1378     		ldrb	r3, [r2]	@ zero_extendqisi2
  70 0004 03F0F103 		and	r3, r3, #241
  71 0008 00F00E00 		and	r0, r0, #14
  72              	.LVL4:
  73 000c 1843     		orrs	r0, r0, r3
  74 000e 1070     		strb	r0, [r2]
  75 0010 7047     		bx	lr
  76              	.L6:
  77 0012 00BF     		.align	2
  78              	.L5:
  79 0014 64500040 		.word	1073762404
ARM GAS  C:\Users\savajon\AppData\Local\Temp\ccRfIcXp.s 			page 4


  80              		.cfi_endproc
  81              	.LFE1:
  82              		.size	SW2_PlayMode_SetDriveMode, .-SW2_PlayMode_SetDriveMode
  83              		.section	.text.SW2_PlayMode_Read,"ax",%progbits
  84              		.align	2
  85              		.global	SW2_PlayMode_Read
  86              		.thumb
  87              		.thumb_func
  88              		.type	SW2_PlayMode_Read, %function
  89              	SW2_PlayMode_Read:
  90              	.LFB2:
  93:Generated_Source\PSoC5/SW2_PlayMode.c **** }
  94:Generated_Source\PSoC5/SW2_PlayMode.c **** 
  95:Generated_Source\PSoC5/SW2_PlayMode.c **** 
  96:Generated_Source\PSoC5/SW2_PlayMode.c **** /*******************************************************************************
  97:Generated_Source\PSoC5/SW2_PlayMode.c **** * Function Name: SW2_PlayMode_Read
  98:Generated_Source\PSoC5/SW2_PlayMode.c **** ****************************************************************************//**
  99:Generated_Source\PSoC5/SW2_PlayMode.c **** *
 100:Generated_Source\PSoC5/SW2_PlayMode.c **** * \brief Reads the associated physical port (pin status register) and masks 
 101:Generated_Source\PSoC5/SW2_PlayMode.c **** *  the required bits according to the width and bit position of the component
 102:Generated_Source\PSoC5/SW2_PlayMode.c **** *  instance. 
 103:Generated_Source\PSoC5/SW2_PlayMode.c **** *
 104:Generated_Source\PSoC5/SW2_PlayMode.c **** * The pin's status register returns the current logic level present on the 
 105:Generated_Source\PSoC5/SW2_PlayMode.c **** * physical pin.
 106:Generated_Source\PSoC5/SW2_PlayMode.c **** *
 107:Generated_Source\PSoC5/SW2_PlayMode.c **** * \return 
 108:Generated_Source\PSoC5/SW2_PlayMode.c **** *  The current value for the pins in the component as a right justified number.
 109:Generated_Source\PSoC5/SW2_PlayMode.c **** *
 110:Generated_Source\PSoC5/SW2_PlayMode.c **** * \funcusage
 111:Generated_Source\PSoC5/SW2_PlayMode.c **** *  \snippet SW2_PlayMode_SUT.c usage_SW2_PlayMode_Read  
 112:Generated_Source\PSoC5/SW2_PlayMode.c **** *******************************************************************************/
 113:Generated_Source\PSoC5/SW2_PlayMode.c **** uint8 SW2_PlayMode_Read(void)
 114:Generated_Source\PSoC5/SW2_PlayMode.c **** {
  91              		.loc 1 114 0
  92              		.cfi_startproc
  93              		@ args = 0, pretend = 0, frame = 0
  94              		@ frame_needed = 0, uses_anonymous_args = 0
  95              		@ link register save eliminated.
 115:Generated_Source\PSoC5/SW2_PlayMode.c ****     return (SW2_PlayMode_PS & SW2_PlayMode_MASK) >> SW2_PlayMode_SHIFT;
  96              		.loc 1 115 0
  97 0000 024B     		ldr	r3, .L8
  98 0002 1878     		ldrb	r0, [r3]	@ zero_extendqisi2
 116:Generated_Source\PSoC5/SW2_PlayMode.c **** }
  99              		.loc 1 116 0
 100 0004 C0F30010 		ubfx	r0, r0, #4, #1
 101 0008 7047     		bx	lr
 102              	.L9:
 103 000a 00BF     		.align	2
 104              	.L8:
 105 000c C1510040 		.word	1073762753
 106              		.cfi_endproc
 107              	.LFE2:
 108              		.size	SW2_PlayMode_Read, .-SW2_PlayMode_Read
 109              		.section	.text.SW2_PlayMode_ReadDataReg,"ax",%progbits
 110              		.align	2
 111              		.global	SW2_PlayMode_ReadDataReg
 112              		.thumb
ARM GAS  C:\Users\savajon\AppData\Local\Temp\ccRfIcXp.s 			page 5


 113              		.thumb_func
 114              		.type	SW2_PlayMode_ReadDataReg, %function
 115              	SW2_PlayMode_ReadDataReg:
 116              	.LFB3:
 117:Generated_Source\PSoC5/SW2_PlayMode.c **** 
 118:Generated_Source\PSoC5/SW2_PlayMode.c **** 
 119:Generated_Source\PSoC5/SW2_PlayMode.c **** /*******************************************************************************
 120:Generated_Source\PSoC5/SW2_PlayMode.c **** * Function Name: SW2_PlayMode_ReadDataReg
 121:Generated_Source\PSoC5/SW2_PlayMode.c **** ****************************************************************************//**
 122:Generated_Source\PSoC5/SW2_PlayMode.c **** *
 123:Generated_Source\PSoC5/SW2_PlayMode.c **** * \brief Reads the associated physical port's data output register and masks 
 124:Generated_Source\PSoC5/SW2_PlayMode.c **** *  the correct bits according to the width and bit position of the component 
 125:Generated_Source\PSoC5/SW2_PlayMode.c **** *  instance. 
 126:Generated_Source\PSoC5/SW2_PlayMode.c **** *
 127:Generated_Source\PSoC5/SW2_PlayMode.c **** * The data output register controls the signal applied to the physical pin in 
 128:Generated_Source\PSoC5/SW2_PlayMode.c **** * conjunction with the drive mode parameter. This is not the same as the 
 129:Generated_Source\PSoC5/SW2_PlayMode.c **** * preferred SW2_PlayMode_Read() API because the 
 130:Generated_Source\PSoC5/SW2_PlayMode.c **** * SW2_PlayMode_ReadDataReg() reads the data register instead of the status 
 131:Generated_Source\PSoC5/SW2_PlayMode.c **** * register. For output pins this is a useful function to determine the value 
 132:Generated_Source\PSoC5/SW2_PlayMode.c **** * just written to the pin.
 133:Generated_Source\PSoC5/SW2_PlayMode.c **** *
 134:Generated_Source\PSoC5/SW2_PlayMode.c **** * \return 
 135:Generated_Source\PSoC5/SW2_PlayMode.c **** *  The current value of the data register masked and shifted into a right 
 136:Generated_Source\PSoC5/SW2_PlayMode.c **** *  justified number for the component instance.
 137:Generated_Source\PSoC5/SW2_PlayMode.c **** *
 138:Generated_Source\PSoC5/SW2_PlayMode.c **** * \funcusage
 139:Generated_Source\PSoC5/SW2_PlayMode.c **** *  \snippet SW2_PlayMode_SUT.c usage_SW2_PlayMode_ReadDataReg 
 140:Generated_Source\PSoC5/SW2_PlayMode.c **** *******************************************************************************/
 141:Generated_Source\PSoC5/SW2_PlayMode.c **** uint8 SW2_PlayMode_ReadDataReg(void)
 142:Generated_Source\PSoC5/SW2_PlayMode.c **** {
 117              		.loc 1 142 0
 118              		.cfi_startproc
 119              		@ args = 0, pretend = 0, frame = 0
 120              		@ frame_needed = 0, uses_anonymous_args = 0
 121              		@ link register save eliminated.
 143:Generated_Source\PSoC5/SW2_PlayMode.c ****     return (SW2_PlayMode_DR & SW2_PlayMode_MASK) >> SW2_PlayMode_SHIFT;
 122              		.loc 1 143 0
 123 0000 024B     		ldr	r3, .L11
 124 0002 1878     		ldrb	r0, [r3]	@ zero_extendqisi2
 144:Generated_Source\PSoC5/SW2_PlayMode.c **** }
 125              		.loc 1 144 0
 126 0004 C0F30010 		ubfx	r0, r0, #4, #1
 127 0008 7047     		bx	lr
 128              	.L12:
 129 000a 00BF     		.align	2
 130              	.L11:
 131 000c C0510040 		.word	1073762752
 132              		.cfi_endproc
 133              	.LFE3:
 134              		.size	SW2_PlayMode_ReadDataReg, .-SW2_PlayMode_ReadDataReg
 135              		.text
 136              	.Letext0:
 137              		.file 2 "Generated_Source\\PSoC5\\cytypes.h"
 138              		.section	.debug_info,"",%progbits
 139              	.Ldebug_info0:
 140 0000 1B010000 		.4byte	0x11b
 141 0004 0400     		.2byte	0x4
ARM GAS  C:\Users\savajon\AppData\Local\Temp\ccRfIcXp.s 			page 6


 142 0006 00000000 		.4byte	.Ldebug_abbrev0
 143 000a 04       		.byte	0x4
 144 000b 01       		.uleb128 0x1
 145 000c B2000000 		.4byte	.LASF20
 146 0010 0C       		.byte	0xc
 147 0011 D6010000 		.4byte	.LASF21
 148 0015 20000000 		.4byte	.LASF22
 149 0019 00000000 		.4byte	.Ldebug_ranges0+0
 150 001d 00000000 		.4byte	0
 151 0021 00000000 		.4byte	.Ldebug_line0
 152 0025 02       		.uleb128 0x2
 153 0026 01       		.byte	0x1
 154 0027 06       		.byte	0x6
 155 0028 05020000 		.4byte	.LASF0
 156 002c 02       		.uleb128 0x2
 157 002d 01       		.byte	0x1
 158 002e 08       		.byte	0x8
 159 002f A4000000 		.4byte	.LASF1
 160 0033 02       		.uleb128 0x2
 161 0034 02       		.byte	0x2
 162 0035 05       		.byte	0x5
 163 0036 C6010000 		.4byte	.LASF2
 164 003a 02       		.uleb128 0x2
 165 003b 02       		.byte	0x2
 166 003c 07       		.byte	0x7
 167 003d 57010000 		.4byte	.LASF3
 168 0041 02       		.uleb128 0x2
 169 0042 04       		.byte	0x4
 170 0043 05       		.byte	0x5
 171 0044 FC010000 		.4byte	.LASF4
 172 0048 02       		.uleb128 0x2
 173 0049 04       		.byte	0x4
 174 004a 07       		.byte	0x7
 175 004b 45010000 		.4byte	.LASF5
 176 004f 02       		.uleb128 0x2
 177 0050 08       		.byte	0x8
 178 0051 05       		.byte	0x5
 179 0052 B3010000 		.4byte	.LASF6
 180 0056 02       		.uleb128 0x2
 181 0057 08       		.byte	0x8
 182 0058 07       		.byte	0x7
 183 0059 97010000 		.4byte	.LASF7
 184 005d 03       		.uleb128 0x3
 185 005e 04       		.byte	0x4
 186 005f 05       		.byte	0x5
 187 0060 696E7400 		.ascii	"int\000"
 188 0064 02       		.uleb128 0x2
 189 0065 04       		.byte	0x4
 190 0066 07       		.byte	0x7
 191 0067 8A010000 		.4byte	.LASF8
 192 006b 04       		.uleb128 0x4
 193 006c D0010000 		.4byte	.LASF12
 194 0070 02       		.byte	0x2
 195 0071 E401     		.2byte	0x1e4
 196 0073 2C000000 		.4byte	0x2c
 197 0077 02       		.uleb128 0x2
 198 0078 04       		.byte	0x4
ARM GAS  C:\Users\savajon\AppData\Local\Temp\ccRfIcXp.s 			page 7


 199 0079 04       		.byte	0x4
 200 007a 9E000000 		.4byte	.LASF9
 201 007e 02       		.uleb128 0x2
 202 007f 08       		.byte	0x8
 203 0080 04       		.byte	0x4
 204 0081 83010000 		.4byte	.LASF10
 205 0085 02       		.uleb128 0x2
 206 0086 01       		.byte	0x1
 207 0087 08       		.byte	0x8
 208 0088 C1010000 		.4byte	.LASF11
 209 008c 04       		.uleb128 0x4
 210 008d 40010000 		.4byte	.LASF13
 211 0091 02       		.byte	0x2
 212 0092 8E02     		.2byte	0x28e
 213 0094 98000000 		.4byte	0x98
 214 0098 05       		.uleb128 0x5
 215 0099 6B000000 		.4byte	0x6b
 216 009d 06       		.uleb128 0x6
 217 009e 79000000 		.4byte	.LASF14
 218 00a2 01       		.byte	0x1
 219 00a3 39       		.byte	0x39
 220 00a4 00000000 		.4byte	.LFB0
 221 00a8 18000000 		.4byte	.LFE0-.LFB0
 222 00ac 01       		.uleb128 0x1
 223 00ad 9C       		.byte	0x9c
 224 00ae CF000000 		.4byte	0xcf
 225 00b2 07       		.uleb128 0x7
 226 00b3 1A000000 		.4byte	.LASF16
 227 00b7 01       		.byte	0x1
 228 00b8 39       		.byte	0x39
 229 00b9 6B000000 		.4byte	0x6b
 230 00bd 00000000 		.4byte	.LLST0
 231 00c1 08       		.uleb128 0x8
 232 00c2 6E000000 		.4byte	.LASF23
 233 00c6 01       		.byte	0x1
 234 00c7 3B       		.byte	0x3b
 235 00c8 6B000000 		.4byte	0x6b
 236 00cc 01       		.uleb128 0x1
 237 00cd 53       		.byte	0x53
 238 00ce 00       		.byte	0
 239 00cf 06       		.uleb128 0x6
 240 00d0 00000000 		.4byte	.LASF15
 241 00d4 01       		.byte	0x1
 242 00d5 5A       		.byte	0x5a
 243 00d6 00000000 		.4byte	.LFB1
 244 00da 18000000 		.4byte	.LFE1-.LFB1
 245 00de 01       		.uleb128 0x1
 246 00df 9C       		.byte	0x9c
 247 00e0 F4000000 		.4byte	0xf4
 248 00e4 07       		.uleb128 0x7
 249 00e5 AE010000 		.4byte	.LASF17
 250 00e9 01       		.byte	0x1
 251 00ea 5A       		.byte	0x5a
 252 00eb 6B000000 		.4byte	0x6b
 253 00ef 21000000 		.4byte	.LLST1
 254 00f3 00       		.byte	0
 255 00f4 09       		.uleb128 0x9
ARM GAS  C:\Users\savajon\AppData\Local\Temp\ccRfIcXp.s 			page 8


 256 00f5 8C000000 		.4byte	.LASF18
 257 00f9 01       		.byte	0x1
 258 00fa 71       		.byte	0x71
 259 00fb 6B000000 		.4byte	0x6b
 260 00ff 00000000 		.4byte	.LFB2
 261 0103 10000000 		.4byte	.LFE2-.LFB2
 262 0107 01       		.uleb128 0x1
 263 0108 9C       		.byte	0x9c
 264 0109 09       		.uleb128 0x9
 265 010a 6A010000 		.4byte	.LASF19
 266 010e 01       		.byte	0x1
 267 010f 8D       		.byte	0x8d
 268 0110 6B000000 		.4byte	0x6b
 269 0114 00000000 		.4byte	.LFB3
 270 0118 10000000 		.4byte	.LFE3-.LFB3
 271 011c 01       		.uleb128 0x1
 272 011d 9C       		.byte	0x9c
 273 011e 00       		.byte	0
 274              		.section	.debug_abbrev,"",%progbits
 275              	.Ldebug_abbrev0:
 276 0000 01       		.uleb128 0x1
 277 0001 11       		.uleb128 0x11
 278 0002 01       		.byte	0x1
 279 0003 25       		.uleb128 0x25
 280 0004 0E       		.uleb128 0xe
 281 0005 13       		.uleb128 0x13
 282 0006 0B       		.uleb128 0xb
 283 0007 03       		.uleb128 0x3
 284 0008 0E       		.uleb128 0xe
 285 0009 1B       		.uleb128 0x1b
 286 000a 0E       		.uleb128 0xe
 287 000b 55       		.uleb128 0x55
 288 000c 17       		.uleb128 0x17
 289 000d 11       		.uleb128 0x11
 290 000e 01       		.uleb128 0x1
 291 000f 10       		.uleb128 0x10
 292 0010 17       		.uleb128 0x17
 293 0011 00       		.byte	0
 294 0012 00       		.byte	0
 295 0013 02       		.uleb128 0x2
 296 0014 24       		.uleb128 0x24
 297 0015 00       		.byte	0
 298 0016 0B       		.uleb128 0xb
 299 0017 0B       		.uleb128 0xb
 300 0018 3E       		.uleb128 0x3e
 301 0019 0B       		.uleb128 0xb
 302 001a 03       		.uleb128 0x3
 303 001b 0E       		.uleb128 0xe
 304 001c 00       		.byte	0
 305 001d 00       		.byte	0
 306 001e 03       		.uleb128 0x3
 307 001f 24       		.uleb128 0x24
 308 0020 00       		.byte	0
 309 0021 0B       		.uleb128 0xb
 310 0022 0B       		.uleb128 0xb
 311 0023 3E       		.uleb128 0x3e
 312 0024 0B       		.uleb128 0xb
ARM GAS  C:\Users\savajon\AppData\Local\Temp\ccRfIcXp.s 			page 9


 313 0025 03       		.uleb128 0x3
 314 0026 08       		.uleb128 0x8
 315 0027 00       		.byte	0
 316 0028 00       		.byte	0
 317 0029 04       		.uleb128 0x4
 318 002a 16       		.uleb128 0x16
 319 002b 00       		.byte	0
 320 002c 03       		.uleb128 0x3
 321 002d 0E       		.uleb128 0xe
 322 002e 3A       		.uleb128 0x3a
 323 002f 0B       		.uleb128 0xb
 324 0030 3B       		.uleb128 0x3b
 325 0031 05       		.uleb128 0x5
 326 0032 49       		.uleb128 0x49
 327 0033 13       		.uleb128 0x13
 328 0034 00       		.byte	0
 329 0035 00       		.byte	0
 330 0036 05       		.uleb128 0x5
 331 0037 35       		.uleb128 0x35
 332 0038 00       		.byte	0
 333 0039 49       		.uleb128 0x49
 334 003a 13       		.uleb128 0x13
 335 003b 00       		.byte	0
 336 003c 00       		.byte	0
 337 003d 06       		.uleb128 0x6
 338 003e 2E       		.uleb128 0x2e
 339 003f 01       		.byte	0x1
 340 0040 3F       		.uleb128 0x3f
 341 0041 19       		.uleb128 0x19
 342 0042 03       		.uleb128 0x3
 343 0043 0E       		.uleb128 0xe
 344 0044 3A       		.uleb128 0x3a
 345 0045 0B       		.uleb128 0xb
 346 0046 3B       		.uleb128 0x3b
 347 0047 0B       		.uleb128 0xb
 348 0048 27       		.uleb128 0x27
 349 0049 19       		.uleb128 0x19
 350 004a 11       		.uleb128 0x11
 351 004b 01       		.uleb128 0x1
 352 004c 12       		.uleb128 0x12
 353 004d 06       		.uleb128 0x6
 354 004e 40       		.uleb128 0x40
 355 004f 18       		.uleb128 0x18
 356 0050 9742     		.uleb128 0x2117
 357 0052 19       		.uleb128 0x19
 358 0053 01       		.uleb128 0x1
 359 0054 13       		.uleb128 0x13
 360 0055 00       		.byte	0
 361 0056 00       		.byte	0
 362 0057 07       		.uleb128 0x7
 363 0058 05       		.uleb128 0x5
 364 0059 00       		.byte	0
 365 005a 03       		.uleb128 0x3
 366 005b 0E       		.uleb128 0xe
 367 005c 3A       		.uleb128 0x3a
 368 005d 0B       		.uleb128 0xb
 369 005e 3B       		.uleb128 0x3b
ARM GAS  C:\Users\savajon\AppData\Local\Temp\ccRfIcXp.s 			page 10


 370 005f 0B       		.uleb128 0xb
 371 0060 49       		.uleb128 0x49
 372 0061 13       		.uleb128 0x13
 373 0062 02       		.uleb128 0x2
 374 0063 17       		.uleb128 0x17
 375 0064 00       		.byte	0
 376 0065 00       		.byte	0
 377 0066 08       		.uleb128 0x8
 378 0067 34       		.uleb128 0x34
 379 0068 00       		.byte	0
 380 0069 03       		.uleb128 0x3
 381 006a 0E       		.uleb128 0xe
 382 006b 3A       		.uleb128 0x3a
 383 006c 0B       		.uleb128 0xb
 384 006d 3B       		.uleb128 0x3b
 385 006e 0B       		.uleb128 0xb
 386 006f 49       		.uleb128 0x49
 387 0070 13       		.uleb128 0x13
 388 0071 02       		.uleb128 0x2
 389 0072 18       		.uleb128 0x18
 390 0073 00       		.byte	0
 391 0074 00       		.byte	0
 392 0075 09       		.uleb128 0x9
 393 0076 2E       		.uleb128 0x2e
 394 0077 00       		.byte	0
 395 0078 3F       		.uleb128 0x3f
 396 0079 19       		.uleb128 0x19
 397 007a 03       		.uleb128 0x3
 398 007b 0E       		.uleb128 0xe
 399 007c 3A       		.uleb128 0x3a
 400 007d 0B       		.uleb128 0xb
 401 007e 3B       		.uleb128 0x3b
 402 007f 0B       		.uleb128 0xb
 403 0080 27       		.uleb128 0x27
 404 0081 19       		.uleb128 0x19
 405 0082 49       		.uleb128 0x49
 406 0083 13       		.uleb128 0x13
 407 0084 11       		.uleb128 0x11
 408 0085 01       		.uleb128 0x1
 409 0086 12       		.uleb128 0x12
 410 0087 06       		.uleb128 0x6
 411 0088 40       		.uleb128 0x40
 412 0089 18       		.uleb128 0x18
 413 008a 9742     		.uleb128 0x2117
 414 008c 19       		.uleb128 0x19
 415 008d 00       		.byte	0
 416 008e 00       		.byte	0
 417 008f 00       		.byte	0
 418              		.section	.debug_loc,"",%progbits
 419              	.Ldebug_loc0:
 420              	.LLST0:
 421 0000 00000000 		.4byte	.LVL0
 422 0004 0A000000 		.4byte	.LVL2
 423 0008 0100     		.2byte	0x1
 424 000a 50       		.byte	0x50
 425 000b 0A000000 		.4byte	.LVL2
 426 000f 18000000 		.4byte	.LFE0
ARM GAS  C:\Users\savajon\AppData\Local\Temp\ccRfIcXp.s 			page 11


 427 0013 0400     		.2byte	0x4
 428 0015 F3       		.byte	0xf3
 429 0016 01       		.uleb128 0x1
 430 0017 50       		.byte	0x50
 431 0018 9F       		.byte	0x9f
 432 0019 00000000 		.4byte	0
 433 001d 00000000 		.4byte	0
 434              	.LLST1:
 435 0021 00000000 		.4byte	.LVL3
 436 0025 0C000000 		.4byte	.LVL4
 437 0029 0100     		.2byte	0x1
 438 002b 50       		.byte	0x50
 439 002c 0C000000 		.4byte	.LVL4
 440 0030 18000000 		.4byte	.LFE1
 441 0034 0400     		.2byte	0x4
 442 0036 F3       		.byte	0xf3
 443 0037 01       		.uleb128 0x1
 444 0038 50       		.byte	0x50
 445 0039 9F       		.byte	0x9f
 446 003a 00000000 		.4byte	0
 447 003e 00000000 		.4byte	0
 448              		.section	.debug_aranges,"",%progbits
 449 0000 34000000 		.4byte	0x34
 450 0004 0200     		.2byte	0x2
 451 0006 00000000 		.4byte	.Ldebug_info0
 452 000a 04       		.byte	0x4
 453 000b 00       		.byte	0
 454 000c 0000     		.2byte	0
 455 000e 0000     		.2byte	0
 456 0010 00000000 		.4byte	.LFB0
 457 0014 18000000 		.4byte	.LFE0-.LFB0
 458 0018 00000000 		.4byte	.LFB1
 459 001c 18000000 		.4byte	.LFE1-.LFB1
 460 0020 00000000 		.4byte	.LFB2
 461 0024 10000000 		.4byte	.LFE2-.LFB2
 462 0028 00000000 		.4byte	.LFB3
 463 002c 10000000 		.4byte	.LFE3-.LFB3
 464 0030 00000000 		.4byte	0
 465 0034 00000000 		.4byte	0
 466              		.section	.debug_ranges,"",%progbits
 467              	.Ldebug_ranges0:
 468 0000 00000000 		.4byte	.LFB0
 469 0004 18000000 		.4byte	.LFE0
 470 0008 00000000 		.4byte	.LFB1
 471 000c 18000000 		.4byte	.LFE1
 472 0010 00000000 		.4byte	.LFB2
 473 0014 10000000 		.4byte	.LFE2
 474 0018 00000000 		.4byte	.LFB3
 475 001c 10000000 		.4byte	.LFE3
 476 0020 00000000 		.4byte	0
 477 0024 00000000 		.4byte	0
 478              		.section	.debug_line,"",%progbits
 479              	.Ldebug_line0:
 480 0000 95000000 		.section	.debug_str,"MS",%progbits,1
 480      02004900 
 480      00000201 
 480      FB0E0D00 
ARM GAS  C:\Users\savajon\AppData\Local\Temp\ccRfIcXp.s 			page 12


 480      01010101 
 481              	.LASF15:
 482 0000 5357325F 		.ascii	"SW2_PlayMode_SetDriveMode\000"
 482      506C6179 
 482      4D6F6465 
 482      5F536574 
 482      44726976 
 483              	.LASF16:
 484 001a 76616C75 		.ascii	"value\000"
 484      6500
 485              	.LASF22:
 486 0020 5A3A5C44 		.ascii	"Z:\\Documents\\micro\\New folder\\final_project\\Fi"
 486      6F63756D 
 486      656E7473 
 486      5C6D6963 
 486      726F5C4E 
 487 004e 6E616C5F 		.ascii	"nal_Project\\Final_Project.cydsn\000"
 487      50726F6A 
 487      6563745C 
 487      46696E61 
 487      6C5F5072 
 488              	.LASF23:
 489 006e 73746174 		.ascii	"staticBits\000"
 489      69634269 
 489      747300
 490              	.LASF14:
 491 0079 5357325F 		.ascii	"SW2_PlayMode_Write\000"
 491      506C6179 
 491      4D6F6465 
 491      5F577269 
 491      746500
 492              	.LASF18:
 493 008c 5357325F 		.ascii	"SW2_PlayMode_Read\000"
 493      506C6179 
 493      4D6F6465 
 493      5F526561 
 493      6400
 494              	.LASF9:
 495 009e 666C6F61 		.ascii	"float\000"
 495      7400
 496              	.LASF1:
 497 00a4 756E7369 		.ascii	"unsigned char\000"
 497      676E6564 
 497      20636861 
 497      7200
 498              	.LASF20:
 499 00b2 474E5520 		.ascii	"GNU C11 5.4.1 20160609 (release) [ARM/embedded-5-br"
 499      43313120 
 499      352E342E 
 499      31203230 
 499      31363036 
 500 00e5 616E6368 		.ascii	"anch revision 237715] -mcpu=cortex-m3 -mthumb -g -O"
 500      20726576 
 500      6973696F 
 500      6E203233 
 500      37373135 
 501 0118 67202D66 		.ascii	"g -ffunction-sections -ffat-lto-objects\000"
ARM GAS  C:\Users\savajon\AppData\Local\Temp\ccRfIcXp.s 			page 13


 501      66756E63 
 501      74696F6E 
 501      2D736563 
 501      74696F6E 
 502              	.LASF13:
 503 0140 72656738 		.ascii	"reg8\000"
 503      00
 504              	.LASF5:
 505 0145 6C6F6E67 		.ascii	"long unsigned int\000"
 505      20756E73 
 505      69676E65 
 505      6420696E 
 505      7400
 506              	.LASF3:
 507 0157 73686F72 		.ascii	"short unsigned int\000"
 507      7420756E 
 507      7369676E 
 507      65642069 
 507      6E7400
 508              	.LASF19:
 509 016a 5357325F 		.ascii	"SW2_PlayMode_ReadDataReg\000"
 509      506C6179 
 509      4D6F6465 
 509      5F526561 
 509      64446174 
 510              	.LASF10:
 511 0183 646F7562 		.ascii	"double\000"
 511      6C6500
 512              	.LASF8:
 513 018a 756E7369 		.ascii	"unsigned int\000"
 513      676E6564 
 513      20696E74 
 513      00
 514              	.LASF7:
 515 0197 6C6F6E67 		.ascii	"long long unsigned int\000"
 515      206C6F6E 
 515      6720756E 
 515      7369676E 
 515      65642069 
 516              	.LASF17:
 517 01ae 6D6F6465 		.ascii	"mode\000"
 517      00
 518              	.LASF6:
 519 01b3 6C6F6E67 		.ascii	"long long int\000"
 519      206C6F6E 
 519      6720696E 
 519      7400
 520              	.LASF11:
 521 01c1 63686172 		.ascii	"char\000"
 521      00
 522              	.LASF2:
 523 01c6 73686F72 		.ascii	"short int\000"
 523      7420696E 
 523      7400
 524              	.LASF12:
 525 01d0 75696E74 		.ascii	"uint8\000"
 525      3800
ARM GAS  C:\Users\savajon\AppData\Local\Temp\ccRfIcXp.s 			page 14


 526              	.LASF21:
 527 01d6 47656E65 		.ascii	"Generated_Source\\PSoC5\\SW2_PlayMode.c\000"
 527      72617465 
 527      645F536F 
 527      75726365 
 527      5C50536F 
 528              	.LASF4:
 529 01fc 6C6F6E67 		.ascii	"long int\000"
 529      20696E74 
 529      00
 530              	.LASF0:
 531 0205 7369676E 		.ascii	"signed char\000"
 531      65642063 
 531      68617200 
 532              		.ident	"GCC: (GNU Tools for ARM Embedded Processors) 5.4.1 20160609 (release) [ARM/embedded-5-bran
